EESchema Schematic File Version 4
LIBS:esp32-cache
LIBS:spican-hw-cache
EELAYER 30 0
EELAYER END
$Descr A4 11693 8268
encoding utf-8
Sheet 1 2
Title ""
Date ""
Rev ""
Comp ""
Comment1 ""
Comment2 ""
Comment3 ""
Comment4 ""
$EndDescr
$Comp
L Switch:SW_Push SW1
U 1 1 5DBC6558
P 3000 2500
F 0 "SW1" H 3000 2785 50  0000 C CNN
F 1 "SW_Push" H 3000 2694 50  0000 C CNN
F 2 "Button_Switch_THT:SW_PUSH_6mm" H 3000 2700 50  0001 C CNN
F 3 "~" H 3000 2700 50  0001 C CNN
	1    3000 2500
	1    0    0    -1  
$EndComp
$Comp
L Device:R_US R3
U 1 1 5DBCCA44
P 2650 2500
F 0 "R3" V 2445 2500 50  0000 C CNN
F 1 "R" V 2536 2500 50  0000 C CNN
F 2 "Resistor_THT:R_Axial_DIN0204_L3.6mm_D1.6mm_P5.08mm_Horizontal" V 2690 2490 50  0001 C CNN
F 3 "~" H 2650 2500 50  0001 C CNN
	1    2650 2500
	0    1    1    0   
$EndComp
$Comp
L power:GND #PWR0101
U 1 1 5DBC7157
P 2500 2500
F 0 "#PWR0101" H 2500 2250 50  0001 C CNN
F 1 "GND" H 2505 2327 50  0000 C CNN
F 2 "" H 2500 2500 50  0001 C CNN
F 3 "" H 2500 2500 50  0001 C CNN
	1    2500 2500
	0    1    1    0   
$EndComp
$Comp
L Device:LED D2
U 1 1 5DBD0947
P 2900 1450
F 0 "D2" H 2893 1666 50  0000 C CNN
F 1 "LED" H 2893 1575 50  0000 C CNN
F 2 "LED_THT:LED_D3.0mm" H 2900 1450 50  0001 C CNN
F 3 "~" H 2900 1450 50  0001 C CNN
	1    2900 1450
	1    0    0    -1  
$EndComp
$Comp
L Device:R_US R1
U 1 1 5DBD5700
P 2600 1250
F 0 "R1" V 2395 1250 50  0000 C CNN
F 1 "300" V 2486 1250 50  0000 C CNN
F 2 "Resistor_THT:R_Axial_DIN0204_L3.6mm_D1.6mm_P5.08mm_Horizontal" V 2640 1240 50  0001 C CNN
F 3 "~" H 2600 1250 50  0001 C CNN
	1    2600 1250
	0    1    1    0   
$EndComp
$Comp
L Device:R_US R2
U 1 1 5DBD6005
P 2600 1450
F 0 "R2" V 2395 1450 50  0000 C CNN
F 1 "300" V 2486 1450 50  0000 C CNN
F 2 "Resistor_THT:R_Axial_DIN0204_L3.6mm_D1.6mm_P5.08mm_Horizontal" V 2640 1440 50  0001 C CNN
F 3 "~" H 2600 1450 50  0001 C CNN
	1    2600 1450
	0    1    1    0   
$EndComp
Text GLabel 3050 1450 2    50   Input ~ 0
LED
$Comp
L power:GND #PWR0104
U 1 1 5DBD8F73
P 5000 5200
F 0 "#PWR0104" H 5000 4950 50  0001 C CNN
F 1 "GND" H 5005 5027 50  0000 C CNN
F 2 "" H 5000 5200 50  0001 C CNN
F 3 "" H 5000 5200 50  0001 C CNN
	1    5000 5200
	1    0    0    -1  
$EndComp
Wire Wire Line
	5000 1950 5000 2400
$Comp
L Device:C C1
U 1 1 5DBDA45A
P 4250 1800
F 0 "C1" H 4365 1846 50  0000 L CNN
F 1 "100nF" H 4365 1755 50  0000 L CNN
F 2 "Capacitor_THT:C_Disc_D10.5mm_W5.0mm_P7.50mm" H 4288 1650 50  0001 C CNN
F 3 "~" H 4250 1800 50  0001 C CNN
	1    4250 1800
	1    0    0    -1  
$EndComp
Wire Wire Line
	4150 1950 4250 1950
Wire Wire Line
	4650 1950 5000 1950
Connection ~ 4650 1950
$Comp
L Device:C C2
U 1 1 5DBDA9BC
P 4650 1800
F 0 "C2" H 4765 1846 50  0000 L CNN
F 1 "10uF" H 4765 1755 50  0000 L CNN
F 2 "Capacitor_THT:CP_Radial_D8.0mm_P3.50mm" H 4688 1650 50  0001 C CNN
F 3 "~" H 4650 1800 50  0001 C CNN
	1    4650 1800
	1    0    0    -1  
$EndComp
$Comp
L power:GND #PWR0106
U 1 1 5DBD9B6F
P 4450 1600
F 0 "#PWR0106" H 4450 1350 50  0001 C CNN
F 1 "GND" H 4455 1427 50  0000 C CNN
F 2 "" H 4450 1600 50  0001 C CNN
F 3 "" H 4450 1600 50  0001 C CNN
	1    4450 1600
	-1   0    0    1   
$EndComp
Connection ~ 4250 1950
Wire Wire Line
	4250 1950 4650 1950
Wire Wire Line
	4250 1650 4450 1650
Wire Wire Line
	4450 1650 4450 1600
Wire Wire Line
	4450 1650 4650 1650
Connection ~ 4450 1650
$Comp
L power:GND #PWR0107
U 1 1 5DBDF66A
P 7000 1350
F 0 "#PWR0107" H 7000 1100 50  0001 C CNN
F 1 "GND" V 7005 1222 50  0000 R CNN
F 2 "" H 7000 1350 50  0001 C CNN
F 3 "" H 7000 1350 50  0001 C CNN
	1    7000 1350
	0    1    1    0   
$EndComp
Text GLabel 7000 1050 0    50   Input ~ 0
RX
Text GLabel 7000 950  0    50   Input ~ 0
TX
Text GLabel 5600 2900 2    50   Input ~ 0
RX
Text GLabel 5600 2700 2    50   Input ~ 0
TX
Text GLabel 4400 2600 0    50   Input ~ 0
EN
Wire Wire Line
	7000 1250 6650 1250
$Comp
L Device:R_US R4
U 1 1 5DBE822F
P 6350 850
F 0 "R4" V 6145 850 50  0000 C CNN
F 1 "10k" V 6236 850 50  0000 C CNN
F 2 "Resistor_THT:R_Axial_DIN0204_L3.6mm_D1.6mm_P5.08mm_Horizontal" V 6390 840 50  0001 C CNN
F 3 "~" H 6350 850 50  0001 C CNN
	1    6350 850 
	0    1    1    0   
$EndComp
$Comp
L Device:R_US R5
U 1 1 5DBE8973
P 6350 1250
F 0 "R5" V 6145 1250 50  0000 C CNN
F 1 "10k" V 6236 1250 50  0000 C CNN
F 2 "Resistor_THT:R_Axial_DIN0204_L3.6mm_D1.6mm_P5.08mm_Horizontal" V 6390 1240 50  0001 C CNN
F 3 "~" H 6350 1250 50  0001 C CNN
	1    6350 1250
	0    1    1    0   
$EndComp
$Comp
L Transistor_BJT:BC550 Q1
U 1 1 5DBEC494
P 5900 850
F 0 "Q1" H 6091 804 50  0000 L CNN
F 1 "BC550" H 6091 895 50  0000 L CNN
F 2 "Package_TO_SOT_THT:TO-92_Inline" H 6100 775 50  0001 L CIN
F 3 "http://www.fairchildsemi.com/ds/BC/BC547.pdf" H 5900 850 50  0001 L CNN
	1    5900 850 
	-1   0    0    1   
$EndComp
$Comp
L Transistor_BJT:BC550 Q2
U 1 1 5DBECD42
P 6000 1250
F 0 "Q2" H 6191 1204 50  0000 L CNN
F 1 "BC550" H 6191 1295 50  0000 L CNN
F 2 "Package_TO_SOT_THT:TO-92_Inline" H 6200 1175 50  0001 L CIN
F 3 "http://www.fairchildsemi.com/ds/BC/BC547.pdf" H 6000 1250 50  0001 L CNN
	1    6000 1250
	-1   0    0    1   
$EndComp
Wire Wire Line
	5900 1050 6600 1050
Wire Wire Line
	6600 1050 6600 850 
Connection ~ 6600 850 
Wire Wire Line
	6600 850  6500 850 
Wire Wire Line
	6100 850  6200 850 
Wire Wire Line
	5800 650  6650 650 
Wire Wire Line
	6650 650  6650 1250
Connection ~ 6650 1250
Wire Wire Line
	6650 1250 6500 1250
Wire Wire Line
	5800 1050 5800 1450
Text GLabel 5800 1450 3    50   Input ~ 0
DTR
Text GLabel 5900 1450 3    50   Input ~ 0
EN
Text GLabel 5600 2600 2    50   Input ~ 0
DTR
$Comp
L Device:R_US R6
U 1 1 5DBF398A
P 2650 2950
F 0 "R6" V 2445 2950 50  0000 C CNN
F 1 "R" V 2536 2950 50  0000 C CNN
F 2 "Resistor_THT:R_Axial_DIN0204_L3.6mm_D1.6mm_P5.08mm_Horizontal" V 2690 2940 50  0001 C CNN
F 3 "~" H 2650 2950 50  0001 C CNN
	1    2650 2950
	0    1    1    0   
$EndComp
$Comp
L power:GND #PWR0109
U 1 1 5DBF3990
P 2500 2950
F 0 "#PWR0109" H 2500 2700 50  0001 C CNN
F 1 "GND" H 2505 2777 50  0000 C CNN
F 2 "" H 2500 2950 50  0001 C CNN
F 3 "" H 2500 2950 50  0001 C CNN
	1    2500 2950
	0    1    1    0   
$EndComp
Text GLabel 3200 2500 2    50   Input ~ 0
EN
Text GLabel 3200 2950 2    50   Input ~ 0
DTR
$Comp
L Device:LED D1
U 1 1 5DBD032D
P 2900 1250
F 0 "D1" H 2893 1466 50  0000 C CNN
F 1 "LED" H 2893 1375 50  0000 C CNN
F 2 "LED_THT:LED_D3.0mm" H 2900 1250 50  0001 C CNN
F 3 "~" H 2900 1250 50  0001 C CNN
	1    2900 1250
	1    0    0    -1  
$EndComp
Text GLabel 5600 4800 2    50   Input ~ 0
LED
$Comp
L Switch:SW_Push SW2
U 1 1 5DBF3984
P 3000 2950
F 0 "SW2" H 3000 3235 50  0000 C CNN
F 1 "SW_Push" H 3000 3144 50  0000 C CNN
F 2 "Button_Switch_THT:SW_PUSH_6mm" H 3000 3150 50  0001 C CNN
F 3 "~" H 3000 3150 50  0001 C CNN
	1    3000 2950
	1    0    0    -1  
$EndComp
NoConn ~ 4400 2800
NoConn ~ 4400 2900
NoConn ~ 4400 4000
NoConn ~ 4400 4100
NoConn ~ 5600 4900
NoConn ~ 5600 4700
NoConn ~ 5600 4600
NoConn ~ 5600 2800
NoConn ~ 5600 3000
NoConn ~ 5600 3100
NoConn ~ 5600 3200
NoConn ~ 5600 3300
NoConn ~ 5600 3400
NoConn ~ 5600 3500
NoConn ~ 5600 3600
NoConn ~ 5600 3700
NoConn ~ 5600 3800
NoConn ~ 5600 3900
NoConn ~ 5600 4000
NoConn ~ 5600 4100
NoConn ~ 5600 4200
NoConn ~ 5600 4300
NoConn ~ 5600 4400
NoConn ~ 5600 4500
Wire Wire Line
	7000 850  6600 850 
$Comp
L Connector:Conn_01x06_Female J1
U 1 1 5DBDE2A9
P 7200 1050
F 0 "J1" H 7228 1026 50  0000 L CNN
F 1 "Conn_01x06_Female" H 7228 935 50  0000 L CNN
F 2 "Connector_PinHeader_2.00mm:PinHeader_1x06_P2.00mm_Vertical" H 7200 1050 50  0001 C CNN
F 3 "~" H 7200 1050 50  0001 C CNN
	1    7200 1050
	1    0    0    -1  
$EndComp
$Comp
L RT9193-33GB:RT9193-33GB IC1
U 1 1 5DC46B55
P 1800 4300
F 0 "IC1" H 2350 4565 50  0000 C CNN
F 1 "RT9193-33GB" H 2350 4474 50  0000 C CNN
F 2 "RT9193-33GB:SOT94P279X130-5N" H 2750 4400 50  0001 L CNN
F 3 "http://www.richtek.com/assets/product_file/RT9193/DS9193-17.pdf" H 2750 4300 50  0001 L CNN
F 4 "300mA, Ultra-Low Noise, Ultra-Fast CMOS LDO Regulator" H 2750 4200 50  0001 L CNN "Description"
F 5 "1.295" H 2750 4100 50  0001 L CNN "Height"
F 6 "RICHTEK" H 2750 4000 50  0001 L CNN "Manufacturer_Name"
F 7 "RT9193-33GB" H 2750 3900 50  0001 L CNN "Manufacturer_Part_Number"
F 8 "" H 2750 3800 50  0001 L CNN "Mouser Part Number"
F 9 "" H 2750 3700 50  0001 L CNN "Mouser Price/Stock"
F 10 "" H 2750 3600 50  0001 L CNN "RS Part Number"
F 11 "" H 2750 3500 50  0001 L CNN "RS Price/Stock"
	1    1800 4300
	1    0    0    -1  
$EndComp
$Comp
L power:GND #PWR0128
U 1 1 5DC4AE39
P 3050 4700
F 0 "#PWR0128" H 3050 4450 50  0001 C CNN
F 1 "GND" H 3055 4527 50  0000 C CNN
F 2 "" H 3050 4700 50  0001 C CNN
F 3 "" H 3050 4700 50  0001 C CNN
	1    3050 4700
	1    0    0    -1  
$EndComp
$Comp
L power:GND #PWR0129
U 1 1 5DC4B171
P 3300 4700
F 0 "#PWR0129" H 3300 4450 50  0001 C CNN
F 1 "GND" H 3305 4527 50  0000 C CNN
F 2 "" H 3300 4700 50  0001 C CNN
F 3 "" H 3300 4700 50  0001 C CNN
	1    3300 4700
	1    0    0    -1  
$EndComp
$Comp
L Device:C C7
U 1 1 5DC4D3CA
P 1650 4250
F 0 "C7" H 1765 4296 50  0000 L CNN
F 1 "1u" H 1765 4205 50  0000 L CNN
F 2 "Capacitor_THT:C_Disc_D11.0mm_W5.0mm_P7.50mm" H 1688 4100 50  0001 C CNN
F 3 "~" H 1650 4250 50  0001 C CNN
	1    1650 4250
	1    0    0    -1  
$EndComp
Wire Wire Line
	1800 4400 1650 4400
Wire Wire Line
	1800 4300 1800 4100
Wire Wire Line
	1800 4100 1650 4100
Connection ~ 1650 4100
Wire Wire Line
	2900 4300 3300 4300
Wire Wire Line
	2900 4400 3050 4400
$Comp
L Device:C C8
U 1 1 5DC51AA2
P 3050 4550
F 0 "C8" H 3165 4596 50  0000 L CNN
F 1 "22n" H 3165 4505 50  0000 L CNN
F 2 "Capacitor_THT:C_Disc_D11.0mm_W5.0mm_P7.50mm" H 3088 4400 50  0001 C CNN
F 3 "~" H 3050 4550 50  0001 C CNN
	1    3050 4550
	1    0    0    -1  
$EndComp
$Comp
L Device:C C9
U 1 1 5DC51F1D
P 3300 4550
F 0 "C9" H 3415 4596 50  0000 L CNN
F 1 "1u" H 3415 4505 50  0000 L CNN
F 2 "Capacitor_THT:C_Disc_D11.0mm_W5.0mm_P7.50mm" H 3338 4400 50  0001 C CNN
F 3 "~" H 3300 4550 50  0001 C CNN
	1    3300 4550
	1    0    0    -1  
$EndComp
Wire Wire Line
	3300 4400 3300 4300
$Comp
L RF_Module:ESP32-WROOM-32 U1
U 1 1 5DBC51D9
P 5000 3800
F 0 "U1" H 5000 5381 50  0000 C CNN
F 1 "ESP32-WROOM-32" H 5000 5290 50  0000 C CNN
F 2 "RF_Module:ESP32-WROOM-32" H 5000 2300 50  0001 C CNN
F 3 "https://www.espressif.com/sites/default/files/documentation/esp32-wroom-32_datasheet_en.pdf" H 4700 3850 50  0001 C CNN
	1    5000 3800
	1    0    0    -1  
$EndComp
Text GLabel 7650 3100 0    50   Input ~ 0
MOSI
Text GLabel 7650 3200 0    50   Output ~ 0
MISO
Text GLabel 7650 3300 0    50   Input ~ 0
SCLK
Text GLabel 7650 3400 0    50   Input ~ 0
CAN_SS
NoConn ~ 5200 3000
NoConn ~ 5200 3150
NoConn ~ 5200 3300
NoConn ~ 8650 3500
NoConn ~ 8650 3600
NoConn ~ 8650 3700
NoConn ~ 8650 3800
NoConn ~ 8650 3900
NoConn ~ 8650 3350
$Sheet
S 7650 3050 1000 900 
U 5DA390F6
F0 "spican" 50
F1 "spican.sch" 50
F2 "CANL" B R 8650 3200 50 
F3 "~INT" O R 8650 3350 50 
F4 "~RX1BF" O R 8650 3600 50 
F5 "~RX0BF" O R 8650 3500 50 
F6 "CANH" B R 8650 3100 50 
F7 "~TX0RTS" O R 8650 3700 50 
F8 "~RESET" I L 7650 3550 50 
F9 "CLKOUT{slash}SOF" O L 7650 3700 50 
F10 "~SS" I L 7650 3400 50 
F11 "~TX2RTS" O R 8650 3900 50 
F12 "MOSI" I L 7650 3100 50 
F13 "MISO" O L 7650 3200 50 
F14 "SILENT" I L 7650 3850 50 
F15 "~TX1RTS" O R 8650 3800 50 
F16 "SCLK" I L 7650 3300 50 
$EndSheet
$Comp
L power:+5V #PWR0110
U 1 1 5DA42892
P 8500 2500
F 0 "#PWR0110" H 8500 2350 50  0001 C CNN
F 1 "+5V" H 8515 2673 50  0000 C CNN
F 2 "" H 8500 2500 50  0001 C CNN
F 3 "" H 8500 2500 50  0001 C CNN
	1    8500 2500
	1    0    0    -1  
$EndComp
$Comp
L power:GND #PWR0111
U 1 1 5DA42BCA
P 8000 2500
F 0 "#PWR0111" H 8000 2250 50  0001 C CNN
F 1 "GND" H 8005 2327 50  0000 C CNN
F 2 "" H 8000 2500 50  0001 C CNN
F 3 "" H 8000 2500 50  0001 C CNN
	1    8000 2500
	1    0    0    -1  
$EndComp
$Comp
L power:VDD #PWR0112
U 1 1 5DA43408
P 9000 2500
F 0 "#PWR0112" H 9000 2350 50  0001 C CNN
F 1 "VDD" H 9017 2673 50  0000 C CNN
F 2 "" H 9000 2500 50  0001 C CNN
F 3 "" H 9000 2500 50  0001 C CNN
	1    9000 2500
	1    0    0    -1  
$EndComp
$Comp
L power:PWR_FLAG #FLG0101
U 1 1 5DA4392B
P 8000 2500
F 0 "#FLG0101" H 8000 2575 50  0001 C CNN
F 1 "PWR_FLAG" H 8000 2673 50  0000 C CNN
F 2 "" H 8000 2500 50  0001 C CNN
F 3 "~" H 8000 2500 50  0001 C CNN
	1    8000 2500
	1    0    0    -1  
$EndComp
$Comp
L power:PWR_FLAG #FLG0102
U 1 1 5DA4472D
P 8500 2500
F 0 "#FLG0102" H 8500 2575 50  0001 C CNN
F 1 "PWR_FLAG" H 8500 2673 50  0000 C CNN
F 2 "" H 8500 2500 50  0001 C CNN
F 3 "~" H 8500 2500 50  0001 C CNN
	1    8500 2500
	-1   0    0    1   
$EndComp
$Comp
L power:PWR_FLAG #FLG0103
U 1 1 5DA45400
P 9000 2500
F 0 "#FLG0103" H 9000 2575 50  0001 C CNN
F 1 "PWR_FLAG" H 9000 2673 50  0000 C CNN
F 2 "" H 9000 2500 50  0001 C CNN
F 3 "~" H 9000 2500 50  0001 C CNN
	1    9000 2500
	-1   0    0    1   
$EndComp
$Comp
L Connector_Generic:Conn_01x04 J2
U 1 1 5DBF5094
P 8850 3000
F 0 "J2" H 8930 2992 50  0000 L CNN
F 1 "Conn_01x04" H 8930 2901 50  0000 L CNN
F 2 "Connector_Wire:SolderWirePad_1x04_P7.62mm_Drill2.5mm" H 8850 3000 50  0001 C CNN
F 3 "~" H 8850 3000 50  0001 C CNN
	1    8850 3000
	1    0    0    -1  
$EndComp
$Comp
L power:+5V #PWR0125
U 1 1 5DBF5952
P 8650 3000
F 0 "#PWR0125" H 8650 2850 50  0001 C CNN
F 1 "+5V" V 8665 3128 50  0000 L CNN
F 2 "" H 8650 3000 50  0001 C CNN
F 3 "" H 8650 3000 50  0001 C CNN
	1    8650 3000
	0    -1   -1   0   
$EndComp
$Comp
L power:GND #PWR0126
U 1 1 5DBF69D0
P 8650 2900
F 0 "#PWR0126" H 8650 2650 50  0001 C CNN
F 1 "GND" V 8655 2772 50  0000 R CNN
F 2 "" H 8650 2900 50  0001 C CNN
F 3 "" H 8650 2900 50  0001 C CNN
	1    8650 2900
	0    1    1    0   
$EndComp
Text GLabel 4400 4200 0    50   Input ~ 0
SCLK
Text GLabel 4400 4300 0    50   Input ~ 0
CAN_SS
Text GLabel 4400 3900 0    50   Input ~ 0
MOSI
Text GLabel 4400 3800 0    50   Output ~ 0
MISO
$Comp
L power:+3V3 #PWR0108
U 1 1 5DBDFB43
P 7000 1150
F 0 "#PWR0108" H 7000 1000 50  0001 C CNN
F 1 "+3V3" V 7015 1278 50  0000 L CNN
F 2 "" H 7000 1150 50  0001 C CNN
F 3 "" H 7000 1150 50  0001 C CNN
	1    7000 1150
	0    -1   -1   0   
$EndComp
$Comp
L power:+3V3 #PWR0105
U 1 1 5DBD989B
P 4150 1950
F 0 "#PWR0105" H 4150 1800 50  0001 C CNN
F 1 "+3V3" V 4165 2078 50  0000 L CNN
F 2 "" H 4150 1950 50  0001 C CNN
F 3 "" H 4150 1950 50  0001 C CNN
	1    4150 1950
	0    -1   -1   0   
$EndComp
$Comp
L power:+3V3 #PWR0102
U 1 1 5DBD0EBE
P 3050 1250
F 0 "#PWR0102" H 3050 1100 50  0001 C CNN
F 1 "+3V3" V 3065 1378 50  0000 L CNN
F 2 "" H 3050 1250 50  0001 C CNN
F 3 "" H 3050 1250 50  0001 C CNN
	1    3050 1250
	0    1    1    0   
$EndComp
Connection ~ 3300 4300
$Comp
L power:+3.3V #PWR0130
U 1 1 5DC533B6
P 3300 4300
F 0 "#PWR0130" H 3300 4150 50  0001 C CNN
F 1 "+3.3V" V 3315 4428 50  0000 L CNN
F 2 "" H 3300 4300 50  0001 C CNN
F 3 "" H 3300 4300 50  0001 C CNN
	1    3300 4300
	0    1    1    0   
$EndComp
Wire Wire Line
	1650 4100 1550 4100
$Comp
L power:+5V #PWR0124
U 1 1 5DC49024
P 1550 4100
F 0 "#PWR0124" H 1550 3950 50  0001 C CNN
F 1 "+5V" V 1565 4228 50  0000 L CNN
F 2 "" H 1550 4100 50  0001 C CNN
F 3 "" H 1550 4100 50  0001 C CNN
	1    1550 4100
	0    -1   -1   0   
$EndComp
$Comp
L power:GND #PWR0127
U 1 1 5DC4A759
P 1550 4400
F 0 "#PWR0127" H 1550 4150 50  0001 C CNN
F 1 "GND" V 1555 4272 50  0000 R CNN
F 2 "" H 1550 4400 50  0001 C CNN
F 3 "" H 1550 4400 50  0001 C CNN
	1    1550 4400
	0    1    1    0   
$EndComp
Connection ~ 1650 4400
Wire Wire Line
	1550 4400 1650 4400
$Comp
L power:+5V #PWR0123
U 1 1 5DC481C9
P 1800 4500
F 0 "#PWR0123" H 1800 4350 50  0001 C CNN
F 1 "+5V" V 1815 4628 50  0000 L CNN
F 2 "" H 1800 4500 50  0001 C CNN
F 3 "" H 1800 4500 50  0001 C CNN
	1    1800 4500
	0    -1   -1   0   
$EndComp
$Comp
L power:GND #PWR0103
U 1 1 5DBD1364
P 2450 1450
F 0 "#PWR0103" H 2450 1200 50  0001 C CNN
F 1 "GND" V 2455 1322 50  0000 R CNN
F 2 "" H 2450 1450 50  0001 C CNN
F 3 "" H 2450 1450 50  0001 C CNN
	1    2450 1450
	0    1    1    0   
$EndComp
$Comp
L power:GND #PWR0131
U 1 1 5DC46235
P 2450 1250
F 0 "#PWR0131" H 2450 1000 50  0001 C CNN
F 1 "GND" V 2455 1122 50  0000 R CNN
F 2 "" H 2450 1250 50  0001 C CNN
F 3 "" H 2450 1250 50  0001 C CNN
	1    2450 1250
	0    1    1    0   
$EndComp
$EndSCHEMATC
