PCBNEW-LibModule-V1  2019-11-01 19:34:48
# encoding utf-8
Units mm
$INDEX
SOT94P279X130-5N
$EndINDEX
$MODULE SOT94P279X130-5N
Po 0 0 0 15 5dbc88d8 00000000 ~~
Li SOT94P279X130-5N
Cd SOT-23-5 Surface Mount Package
Kw Integrated Circuit
Sc 0
At SMD
AR 
Op 0 0 0
T0 0 0 1.27 1.27 0 0.254 N V 21 N "IC**"
T1 0 0 1.27 1.27 0 0.254 N I 21 N "SOT94P279X130-5N"
DS -2.125 -1.8 2.125 -1.8 0.05 24
DS 2.125 -1.8 2.125 1.8 0.05 24
DS 2.125 1.8 -2.125 1.8 0.05 24
DS -2.125 1.8 -2.125 -1.8 0.05 24
DS -0.8 -1.448 0.8 -1.448 0.1 24
DS 0.8 -1.448 0.8 1.448 0.1 24
DS 0.8 1.448 -0.8 1.448 0.1 24
DS -0.8 1.448 -0.8 -1.448 0.1 24
DS -0.8 -0.508 0.14 -1.448 0.1 24
DS -0.275 -1.448 0.275 -1.448 0.2 21
DS 0.275 -1.448 0.275 1.448 0.2 21
DS 0.275 1.448 -0.275 1.448 0.2 21
DS -0.275 1.448 -0.275 -1.448 0.2 21
DS -1.875 -1.514 -0.625 -1.514 0.2 21
$PAD
Po -1.25 -0.94
Sh "1" R 0.65 1.25 0 0 900
At SMD N 00888000
Ne 0 ""
$EndPAD
$PAD
Po -1.25 0
Sh "2" R 0.65 1.25 0 0 900
At SMD N 00888000
Ne 0 ""
$EndPAD
$PAD
Po -1.25 0.94
Sh "3" R 0.65 1.25 0 0 900
At SMD N 00888000
Ne 0 ""
$EndPAD
$PAD
Po 1.25 0.94
Sh "4" R 0.65 1.25 0 0 900
At SMD N 00888000
Ne 0 ""
$EndPAD
$PAD
Po 1.25 -0.94
Sh "5" R 0.65 1.25 0 0 900
At SMD N 00888000
Ne 0 ""
$EndPAD
$EndMODULE SOT94P279X130-5N
$EndLIBRARY
